…
tr <- nrow(titanic_train) # determine number of observations
tt <- nrow(titanic_test) # determine number of observations

print(tr/(tr+tt))
```

    ## [1] 0.6992144

``` r
titanic_train # look at training data
```

    ## # A tibble: 623 × 12
    ##    passenger_id survi…¹ pclass name  sex     age sib_sp parch ticket  fare cabin
    ##           <dbl> <chr>    <dbl> <chr> <chr> <dbl>  <dbl> <dbl> <chr>  <dbl> <chr>
    ##  1            1 No           3 Brau… male     22      1     0 A/5 2…  7.25 <NA> 
    ##  2            5 No           3 Alle… male     35      0     0 373450  8.05 <NA> 
    ##  3            6 No           3 Mora… male     NA      0     0 330877  8.46 <NA> 
    ##  4            7 No           1 McCa… male     54      0     0 17463  51.9  E46  
    ##  5           13 No           3 Saun… male     20      0     0 A/5. …  8.05 <NA> 
    ##  6           14 No           3 Ande… male     39      1     5 347082 31.3  <NA> 
    ##  7           17 No           3 Rice… male      2      4     1 382652 29.1  <NA> 
    ##  8           21 No           2 Fynn… male     35      0     0 239865 26    <NA> 
    ##  9           25 No           3 Pals… fema…     8      3     1 349909 21.1  <NA> 
    ## 10           27 No           3 Emir… male     NA      0     0 2631    7.22 <NA> 
    ## # … with 613 more rows, 1 more variable: embarked <chr>, and abbreviated
    ## #   variable name ¹​survived
    ## # ℹ Use `print(n = ...)` to see more rows, and `colnames()` to see all variable names
…
